<?xml version="1.0" encoding="utf-8"?>
<!-- Generator: Adobe Illustrator 19.0.0, SVG Export Plug-In . SVG Version: 6.00 Build 0)  -->
<svg version="1.1" id="Layer_1" xmlns="http://www.w3.org/2000/svg" xmlns:xlink="http://www.w3.org/1999/xlink" x="0px" y="0px"
	 viewBox="0 0 147.3 147.3" style="enable-background:new 0 0 147.3 147.3;" xml:space="preserve">
<style type="text/css">
	.st0{fill:#58595B;}
</style>
<g id="XMLID_836_">
	<path id="XMLID_837_" class="st0" d="M141.7,52.5c0-0.1-0.1-0.3-0.1-0.4c-0.1-0.3-0.1-0.5-0.2-0.8c-0.3-4.4-1.4-8.9-3.3-13.5
		c-7-16.7-22.9-25-40.5-21c-7.3,1.6-13.8,5.3-19.2,11c-1.2,1.3-2.4,2.6-3.6,3.8l-1.2,1.3C69.3,27.6,65.3,24,61,21.3
		c-6.8-4.1-14.4-5.9-22.8-5.4c-5.9,0.4-10.7,1.9-14.9,4.7c-8.5,5.6-14,13.7-16.6,24.8c-0.4,1.6-0.6,3.2-0.8,4.7
		c-0.1,0.7-0.2,1.4-0.3,2.1l0,0l0,4.1c0.1,0.5,0.1,1,0.2,1.5C5.9,59,6,60.1,6.3,61.2c2.5,10.6,8.3,19.4,17.5,26.1
		c3.1,2.3,6.3,4.6,9.5,6.9c6.2,4.5,12.6,9.1,18.7,13.9l0.2,0.1c8,6.3,16.2,12.8,21.1,22.2l0.6,1.1l0.4-1.2c1.2-3.4,3.5-6,6-8.8
		l0.2-0.2c0.4-0.4,0.9-1,0.8-1.6c-0.1-1.1-0.3-2.3-0.4-3.5c-0.1-0.5-0.1-0.9-0.2-1.4l-0.2-1.1l-6.8,7.4c-4.2-5.2-9.3-9.7-13.6-13.4
		C49.7,99,38.4,91.1,27.6,83.5l-1.5-1c-6.8-4.7-11.4-11.3-14-19.5c-2.6-8.5-1.5-17.4,3.3-26.3c5-9.3,12.4-14.5,22-15.4
		c12.1-1.2,22.4,3.4,31.2,13.9c0.1,0.2,0.3,0.4,0.4,0.7c0.1,0.1,0.1,0.3,0.2,0.4c1,1.8,2.4,2.7,4.3,2.7c1.9,0,3.4-0.9,4.4-2.7
		c0.4-0.7,0.8-1.4,1.3-1.9c0.8-0.8,1.6-1.6,2.4-2.4c0.5-0.5,1-1,1.6-1.5c4.2-4.2,9.2-7,15-8.3c7.5-1.7,14-1.3,19.9,1.3
		c6.9,3.1,12,8.7,15.3,16.7c4.2,10.2,4.1,19.4-0.3,28.1c-0.3,0.6-0.6,1.2-1,1.8l-0.6,1.1l3.6,3.9l0.4-0.6c2.7-4.2,4.3-7.7,5.1-11.4
		c0.3-1.5,0.6-3.1,0.8-4.6c0.1-0.7,0.2-1.4,0.3-2.1v-3.7L141.7,52.5z"/>
	<path id="XMLID_854_" class="st0" d="M126.9,73.8l-2.8,0c-4,0-8.2,0-12.3,0c-0.5,0-0.7-0.1-0.8-0.1c-0.1-0.1-0.2-0.4-0.1-0.8
		c0-2.1,0-4.1,0-6.2c0-2.9,0-5.8,0.1-8.7c0-1.6-0.4-2.9-1.3-3.8c-0.9-0.9-2.2-1.3-3.8-1.3c-3.8,0.1-7.8,0.1-11.5,0.1
		c-1.6,0-3.2,0-4.8,0c0,0,0,0,0,0c-3.6,0-5.1,1.6-5.1,5.2v15.7l-5.7,0c-3.5,0-7.1,0-10.6,0c-2.8,0-4.6,1.8-4.6,4.6
		c0,5.7,0,11.4,0,17.2c0,3.2,1.6,4.8,4.8,4.8c3.8,0,7.5,0,11.3,0l4.8,0l0,5.6c0,3.5,0,7,0,10.5c0,3.2,1.6,4.8,4.8,4.8
		c2.8,0,5.6,0,8.3,0c2.9,0,5.7,0,8.6,0c3.3,0,4.8-1.6,4.8-4.9l0-14.8c0-0.5,0-1.1,0.1-1.1c0.1-0.1,0.6-0.1,1.1-0.1l14.9,0
		c3.2,0,4.9-1.7,4.9-4.9c0-5.6,0-11.2,0-16.8C131.9,75.4,130.2,73.8,126.9,73.8z M126.6,94.7c0,0.4-0.1,0.6-0.1,0.6
		c-0.1,0.1-0.2,0.1-0.7,0.1c-3.6,0-7.1,0-10.7,0l-4.2,0c-1.7,0-2.9,0.4-3.8,1.3c-0.8,0.8-1.3,2.1-1.3,3.8l0,15.5H89.4
		c0-0.3,0-0.6,0-0.8l0-6.7c0-2.6,0-5.1,0-7.7c0-3.7-1.7-5.3-5.3-5.3l-2.1,0c-4,0-8.2,0-12.3,0c-0.5,0-0.8,0-0.9-0.2
		c-0.1-0.1-0.2-0.3-0.2-0.8c0.1-4.7,0.1-9.5,0-14.8c0-0.5,0.1-0.7,0.1-0.8c0.1-0.1,0.4-0.1,0.8-0.1c4.4,0,9,0,13.3,0l1.4,0
		c3.3,0,5-1.7,5-5c0-3.3,0-6.7,0-10l0-5.5h16.5l0,5.1c0,3.5,0,7,0,10.5c0,3.3,1.7,5,5,5l0.5,0c4.7,0,9.5,0,14.3,0
		c0.5,0,0.7,0,0.9,0.2c0.1,0.1,0.2,0.4,0.2,0.7C126.6,85.1,126.6,90.5,126.6,94.7z"/>
</g>
</svg>
